{
	"name": "DocBookExport",
	"version": "0.0.0",
	"author": [
		"Nischayn22",
		"WikiWorks"
	],
	"url": "https://www.mediawiki.org/wiki/Extension:DocBookExport",
	"license-name": "MIT",
	"type": "other",
	"AutoloadClasses": {
		"DocBookExport": "DocBookExport.php",
		"DocBookExportAPI": "DocBookExportAPI.php"
	},
	"config": {
		"DocBookExportPandocPath": "pandoc"
	},
	"Hooks": {
		"ParserFirstCallInit": [
			"DocBookExport::onParserSetup"
		]
	},
	"APIModules": {
		"getdocbook": "DocBookExportAPI"
	},
	"ExtensionMessagesFiles": {
		"DocBookExportMagic": "DocBookExport.i18n.magic.php"
	},
	"manifest_version": 1
}